Merge province
…
Functions

By default, the province are merge back together by applying the function sum. We can change this by using the function FUN. For example, here, it can be more interesting here to calculate the mean than the sum when merging back together the provinces.

> merge_prov(demo, from = 1990, to = 2010, FUN = mean)
# A tibble: 30 x 4
   province  year                   key value
      <chr> <int>                 <chr> <dbl>
 1 Dack Lak  2005      crude_birth_rate 24.60
 2 Dack Lak  2005      crude_death_rate  5.75
 3 Dack Lak  2005 natural_increase_rate 18.85
 4 Dack Lak  2007      crude_birth_rate 22.75
 5 Dack Lak  2007      crude_death_rate  5.65
 6 Dack Lak  2007 natural_increase_rate 17.10
 7 Dack Lak  2008      crude_birth_rate 20.90
 8 Dack Lak  2008      crude_death_rate  5.50
 9 Dack Lak  2008 natural_increase_rate 15.40
10 Dack Lak  2009      crude_birth_rate 21.25
# ... with 20 more rows
…
> pop_size <- gso::pop_size
> pop_size <- mutate_if(pop_size, !is.element(names(pop_size), c("province", "year")), funs(1000 * .))
> head(pop_size)
  province year  female    male   rural   total  urban
1 An Giang 1995 1003400  966700 1602100 1970100 368000
2 An Giang 1996 1012600  978100 1619800 1990700 370900
3 An Giang 1997 1022000  989100 1616000 2011100 395100
4 An Giang 1998 1031400 1001100 1634500 2032500 398000
5 An Giang 1999 1043900 1011500 1650100 2055400 405300
6 An Giang 2000 1047600 1014100 1604200 2061700 457500

We can now used the pop_size information in the function with the parameters df2 and args to calculate the weighted mean by the total size of the population. The parameter df2 take data frame as entry and the parameters args should indicate the name of the column containing the weight we want to apply on the data. The parameters df and df2 should have at least one column in commun to be able to join them together.

> merge_prov(demo, from = 1990, FUN = weighted.mean, df2 = pop_size, args = "total")
# A tibble: 60 x 4
   province  year                   key     value
      <chr> <int>                 <chr>     <dbl>
 1 Dack Lak  2005      crude_birth_rate 23.532414
 2 Dack Lak  2005      crude_death_rate  5.661035
 3 Dack Lak  2005 natural_increase_rate 17.871380
 4 Dack Lak  2007      crude_birth_rate 21.973244
 5 Dack Lak  2007      crude_death_rate  5.506156
 6 Dack Lak  2007 natural_increase_rate 16.467088
 7 Dack Lak  2008      crude_birth_rate 20.163343
 8 Dack Lak  2008      crude_death_rate  5.443334
 9 Dack Lak  2008 natural_increase_rate 14.720009
10 Dack Lak  2009      crude_birth_rate 20.383568
# ... with 50 more rows
…
